<svg xmlns="http://www.w3.org/2000/svg" width="58" height="64" viewBox="0 0 58 64">
    <g fill="#FFF" fill-rule="nonzero">
        <path d="M57.711 5.03a1.068 1.068 0 0 0-.628-.687L46.394.077a1.07 1.07 0 0 0-1.466.99v13.867h-6.414c-.59 0-1.068.478-1.068 1.067v12.8H24.619c-.59 0-1.07.477-1.07 1.066v12.8H9.655c-.59 0-1.069.478-1.069 1.067v19.2a1.068 1.068 0 0 0 2.138 0V44.8H24.62c.59 0 1.069-.477 1.069-1.066v-12.8h12.826c.59 0 1.07-.478 1.07-1.067v-12.8h14.964v45.866a1.068 1.068 0 0 0 2.138 0V16.001c0-.59-.479-1.067-1.07-1.067h-8.55V9.328l9.926-2.972c.566-.168.888-.762.72-1.327zM47.066 7.1V2.644l6.38 2.547-6.38 1.91zM1.17 58.537c-.646 0-1.17.489-1.17 1.092v3.278C0 63.511.524 64 1.17 64c.647 0 1.171-.49 1.171-1.093V59.63c0-.603-.524-1.092-1.17-1.092z"/>
        <path d="M35.606 11.32l-3.17-3.207c-.009-.01-.021-.013-.03-.022a1.056 1.056 0 0 0-.311-.213c-.009 0-.018 0-.028-.007a1.018 1.018 0 0 0-.336-.066c-.034 0-.066 0-.105.005a1 1 0 0 0-.269.053c-.034.011-.066.021-.099.036a1.05 1.05 0 0 0-.317.214l-3.169 3.207a1.078 1.078 0 0 0 .026 1.512c.41.4 1.058.4 1.468 0l1.368-1.383v9.18H15.845c-.583 0-1.056.478-1.056 1.068v13.898H1.056c-.583 0-1.056.478-1.056 1.069v19.243c0 .59.473 1.069 1.056 1.069.584 0 1.057-.48 1.057-1.07V37.734h13.732c.583 0 1.056-.479 1.056-1.07V22.767H31.69c.583 0 1.056-.478 1.056-1.069V11.45l1.366 1.383c.42.41 1.088.398 1.494-.027a1.078 1.078 0 0 0 0-1.485zM23.102 46.83h-8.741c-.603 0-1.093.523-1.093 1.17 0 .647.49 1.17 1.093 1.17h8.741c.604 0 1.093-.523 1.093-1.17 0-.647-.489-1.17-1.093-1.17zM37.932 32.78H29.19c-.603 0-1.092.525-1.092 1.171 0 .647.489 1.171 1.092 1.171h8.742c.603 0 1.092-.524 1.092-1.17 0-.647-.489-1.172-1.092-1.172zM51.98 19.512H43.24c-.603 0-1.093.524-1.093 1.17 0 .647.49 1.172 1.093 1.172h8.741c.604 0 1.093-.525 1.093-1.171 0-.647-.489-1.17-1.093-1.17z"/>
    </g>
</svg>
