<svg xmlns="http://www.w3.org/2000/svg" width="20" height="20" viewBox="0 0 20 20">
    <path fill="#FFF" fill-rule="nonzero" d="M11.769 10l7.865-7.865A1.25 1.25 0 1 0 17.865.366L10 8.232 2.135.366a1.25 1.25 0 1 0-1.769 1.77L8.232 10 .366 17.865a1.25 1.25 0 1 0 1.769 1.769L10 11.768l7.865 7.866a1.247 1.247 0 0 0 1.769 0 1.25 1.25 0 0 0 0-1.77L11.769 10z"/>
</svg>
