<svg width="18" height="32" viewBox="0 0 18 32" fill="none" xmlns="http://www.w3.org/2000/svg">
<path d="M2.02007 31.6595C1.71546 31.6595 1.41085 31.5425 1.17763 31.311C0.713576 30.8457 0.713576 30.0892 1.17763 29.6239L14.6138 16.1503L1.18001 2.67437C0.715956 2.20902 0.715956 1.45254 1.18001 0.987193C1.64407 0.521847 2.39845 0.521847 2.86251 0.987193L17.1411 15.3055C17.6052 15.7709 17.6052 16.5274 17.1411 16.9927L2.86251 31.311C2.62929 31.5449 2.32468 31.6595 2.02007 31.6595Z" fill="#FFF"/>
</svg>
