<svg width="20" height="15" viewBox="0 0 20 15" fill="none" xmlns="http://www.w3.org/2000/svg">
<rect width="11.9906" height="1.99845" fill="white"/>
<rect y="3.99683" width="11.9906" height="1.99845" fill="white"/>
<rect y="7.99377" width="7.99377" height="1.99845" fill="white"/>
<path d="M15.9875 7.99373V3.99683H13.9891V7.99373H9.99219V9.99214H13.9891V13.9891H15.9875V9.99214H19.9844V7.99373H15.9875Z" fill="white"/>
</svg>
